{
  "files": {
    "main.css": "/gitmarks/static/css/main.345256d2.chunk.css",
    "main.js": "/gitmarks/static/js/main.8f5332c1.chunk.js",
    "main.js.map": "/gitmarks/static/js/main.8f5332c1.chunk.js.map",
    "runtime-main.js": "/gitmarks/static/js/runtime-main.0d414e09.js",
    "runtime-main.js.map": "/gitmarks/static/js/runtime-main.0d414e09.js.map",
    "static/css/2.f2b28284.chunk.css": "/gitmarks/static/css/2.f2b28284.chunk.css",
    "static/js/2.99af3f83.chunk.js": "/gitmarks/static/js/2.99af3f83.chunk.js",
    "static/js/2.99af3f83.chunk.js.map": "/gitmarks/static/js/2.99af3f83.chunk.js.map",
    "index.html": "/gitmarks/index.html",
    "precache-manifest.2e289a5392126a1183c58cb9c803008f.js": "/gitmarks/precache-manifest.2e289a5392126a1183c58cb9c803008f.js",
    "service-worker.js": "/gitmarks/service-worker.js",
    "static/css/2.f2b28284.chunk.css.map": "/gitmarks/static/css/2.f2b28284.chunk.css.map",
    "static/css/main.345256d2.chunk.css.map": "/gitmarks/static/css/main.345256d2.chunk.css.map",
    "static/js/2.99af3f83.chunk.js.LICENSE.txt": "/gitmarks/static/js/2.99af3f83.chunk.js.LICENSE.txt",
    "static/media/index.css": "/gitmarks/static/media/roboto-latin-900-normal.bb1e4dc6.woff"
  },
  "entrypoints": [
    "static/js/runtime-main.0d414e09.js",
    "static/css/2.f2b28284.chunk.css",
    "static/js/2.99af3f83.chunk.js",
    "static/css/main.345256d2.chunk.css",
    "static/js/main.8f5332c1.chunk.js"
  ]
}